custom/sim/coco/test_sdr_ra_64x72.vcd
$date
	Thu May 26 12:20:56 2022
$end
$version
	Icarus Verilog
$end
$timescale
	1ps
$end
$scope module test_ra_sdr_64x72 $end
$var wire 32 ! bist_ctl [0:31] $end
$var wire 32 " bist_status [0:31] $end
$var wire 16 # cfg_dat [0:15] $end
$var wire 1 $ cfg_wr $end
$var wire 1 % clk $end
$var wire 6 & rd_adr_0 [0:5] $end
$var wire 6 ' rd_adr_1 [0:5] $end
$var wire 1 ( rd_enb_0 $end
$var wire 1 ) rd_enb_1 $end
$var wire 1 * reset $end
$var wire 6 + wr_adr_0 [0:5] $end
$var wire 72 , wr_dat_0 [0:71] $end
$var wire 1 - wr_enb_0 $end
$var wire 1 . strobe $end
$var wire 72 / rd_dat_1 [0:71] $end
$var wire 72 0 rd_dat_0 [0:71] $end
$var wire 1 1 mux_wr0_enb $end
$var wire 72 2 mux_wr0_dat [0:71] $end
$var wire 6 3 mux_wr0_adr [0:5] $end
$var wire 1 4 mux_rd1_enb $end
$var wire 6 5 mux_rd1_adr [0:5] $end
$var wire 1 6 mux_rd0_enb $end
$var wire 6 7 mux_rd0_adr [0:5] $end
$var wire 16 8 cfg [0:15] $end
$scope module bist $end
$var wire 6 9 bist_rd0_adr [5:0] $end
$var wire 1 : bist_rd0_enb $end
$var wire 6 ; bist_rd1_adr [5:0] $end
$var wire 1 < bist_rd1_enb $end
$var wire 6 = bist_wr0_adr [5:0] $end
$var wire 72 > bist_wr0_dat [71:0] $end
$var wire 1 ? bist_wr0_enb $end
$var wire 1 % clk $end
$var wire 32 @ ctl [31:0] $end
$var wire 6 A rd0_adr_in [5:0] $end
$var wire 1 ( rd0_enb_in $end
$var wire 6 B rd1_adr_in [5:0] $end
$var wire 1 ) rd1_enb_in $end
$var wire 1 * reset $end
$var wire 6 C seq_d [5:0] $end
$var wire 32 D status [31:0] $end
$var wire 6 E wr0_adr_in [5:0] $end
$var wire 72 F wr0_dat_in [71:0] $end
$var wire 1 - wr0_enb_in $end
$var wire 1 1 wr0_enb_out $end
$var wire 72 G wr0_dat_out [71:0] $end
$var wire 6 H wr0_adr_out [5:0] $end
$var wire 1 4 rd1_enb_out $end
$var wire 72 I rd1_dat [71:0] $end
$var wire 6 J rd1_adr_out [5:0] $end
$var wire 1 6 rd0_enb_out $end
$var wire 72 K rd0_dat [71:0] $end
$var wire 6 L rd0_adr_out [5:0] $end
$var wire 1 M active $end
$var reg 6 N seq_q [5:0] $end
$upscope $end
$scope module cfig $end
$var wire 16 O cfg [0:15] $end
$var wire 16 P cfg_dat [0:15] $end
$var wire 1 $ cfg_wr $end
$var wire 1 % clk $end
$var wire 1 * reset $end
$var wire 16 Q cfg_d [0:15] $end
$var reg 16 R cfg_q [0:15] $end
$upscope $end
$scope module lcb $end
$var wire 16 S cfg [0:15] $end
$var wire 1 % clk $end
$var wire 1 * reset $end
$var wire 1 . strobe $end
$scope begin genblk1 $end
$upscope $end
$upscope $end
$scope module ra $end
$var wire 1 % clk $end
$var wire 6 T rd_adr_0 [0:5] $end
$var wire 6 U rd_adr_1 [0:5] $end
$var wire 1 6 rd_enb_0 $end
$var wire 1 4 rd_enb_1 $end
$var wire 1 * reset $end
$var wire 1 . strobe $end
$var wire 1 V strobe_int $end
$var wire 6 W wr_adr_0 [0:5] $end
$var wire 72 X wr_dat_0 [0:71] $end
$var wire 1 1 wr_enb_0 $end
$var wire 1 Y wr0_na4_na5 $end
$var wire 1 Z wr0_na4_a5 $end
$var wire 1 [ wr0_na3 $end
$var wire 1 \ wr0_na1_na2 $end
$var wire 1 ] wr0_na1_a2 $end
$var wire 1 ^ wr0_c_na0 $end
$var wire 1 _ wr0_c_a0 $end
$var wire 1 ` wr0_a4_na5 $end
$var wire 1 a wr0_a4_a5 $end
$var wire 1 b wr0_a3 $end
$var wire 1 c wr0_a1_na2 $end
$var wire 1 d wr0_a1_a2 $end
$var wire 72 e rd_dat_1 [0:71] $end
$var wire 72 f rd_dat_0 [0:71] $end
$var wire 1 g rd1_na4_na5 $end
$var wire 1 h rd1_na4_a5 $end
$var wire 1 i rd1_na3 $end
$var wire 1 j rd1_na1_na2 $end
$var wire 1 k rd1_na1_a2 $end
$var wire 1 l rd1_c_na0 $end
$var wire 1 m rd1_c_a0 $end
$var wire 1 n rd1_a4_na5 $end
$var wire 1 o rd1_a4_a5 $end
$var wire 1 p rd1_a3 $end
$var wire 1 q rd1_a1_na2 $end
$var wire 1 r rd1_a1_a2 $end
$var wire 1 s rd0_na4_na5 $end
$var wire 1 t rd0_na4_a5 $end
$var wire 1 u rd0_na3 $end
$var wire 1 v rd0_na1_na2 $end
$var wire 1 w rd0_na1_a2 $end
$var wire 1 x rd0_c_na0 $end
$var wire 1 y rd0_c_a0 $end
$var wire 1 z rd0_a4_na5 $end
$var wire 1 { rd0_a4_a5 $end
$var wire 1 | rd0_a3 $end
$var wire 1 } rd0_a1_na2 $end
$var wire 1 ~ rd0_a1_a2 $end
$var wire 72 !" ra_rd_dat_1 [0:71] $end
$var wire 72 "" ra_rd_dat_0 [0:71] $end
$var reg 6 #" rd_adr_0_q [0:5] $end
$var reg 6 $" rd_adr_1_q [0:5] $end
$var reg 72 %" rd_dat_0_q [0:71] $end
$var reg 72 &" rd_dat_1_q [0:71] $end
$var reg 1 '" rd_enb_0_q $end
$var reg 1 (" rd_enb_1_q $end
$var reg 6 )" wr_adr_0_q [0:5] $end
$var reg 72 *" wr_dat_0_q [0:71] $end
$var reg 1 +" wr_enb_0_q $end
$scope begin genblk1 $end
$upscope $end
$scope begin genblk2 $end
$upscope $end
$scope module add_clk $end
$var wire 6 ," rd_adr_0 [0:5] $end
$var wire 6 -" rd_adr_1 [0:5] $end
$var wire 1 '" rd_enb_0 $end
$var wire 1 (" rd_enb_1 $end
$var wire 1 V strobe $end
$var wire 6 ." wr_adr_0 [0:5] $end
$var wire 1 +" wr_enb_0 $end
$var wire 1 Y wr0_na4_na5 $end
$var wire 1 Z wr0_na4_a5 $end
$var wire 1 [ wr0_na3 $end
$var wire 1 \ wr0_na1_na2 $end
$var wire 1 ] wr0_na1_a2 $end
$var wire 1 ^ wr0_c_na0 $end
$var wire 1 _ wr0_c_a0 $end
$var wire 1 ` wr0_a4_na5 $end
$var wire 1 a wr0_a4_a5 $end
$var wire 1 b wr0_a3 $end
$var wire 1 c wr0_a1_na2 $end
$var wire 1 d wr0_a1_a2 $end
$var wire 1 g rd1_na4_na5 $end
$var wire 1 h rd1_na4_a5 $end
$var wire 1 i rd1_na3 $end
$var wire 1 j rd1_na1_na2 $end
$var wire 1 k rd1_na1_a2 $end
$var wire 1 l rd1_c_na0 $end
$var wire 1 m rd1_c_a0 $end
$var wire 1 n rd1_a4_na5 $end
$var wire 1 o rd1_a4_a5 $end
$var wire 1 p rd1_a3 $end
$var wire 1 q rd1_a1_na2 $end
$var wire 1 r rd1_a1_a2 $end
$var wire 1 s rd0_na4_na5 $end
$var wire 1 t rd0_na4_a5 $end
$var wire 1 u rd0_na3 $end
$var wire 1 v rd0_na1_na2 $end
$var wire 1 w rd0_na1_a2 $end
$var wire 1 x rd0_c_na0 $end
$var wire 1 y rd0_c_a0 $end
$var wire 1 z rd0_a4_na5 $end
$var wire 1 { rd0_a4_a5 $end
$var wire 1 | rd0_a3 $end
$var wire 1 } rd0_a1_na2 $end
$var wire 1 ~ rd0_a1_a2 $end
$scope module predecode_r0 $end
$var wire 1 ~ a1_a2 $end
$var wire 1 } a1_na2 $end
$var wire 1 { a4_a5 $end
$var wire 1 z a4_na5 $end
$var wire 6 /" address [0:5] $end
$var wire 1 y c_a0 $end
$var wire 1 x c_na0 $end
$var wire 1 0" clock_enable $end
$var wire 1 '" enable $end
$var wire 1 w na1_a2 $end
$var wire 1 v na1_na2 $end
$var wire 1 t na4_a5 $end
$var wire 1 s na4_na5 $end
$var wire 1 V strobe $end
$var wire 1 u na3 $end
$var wire 6 1" inv_address [0:5] $end
$var wire 1 | a3 $end
$upscope $end
$scope module predecode_r1 $end
$var wire 1 r a1_a2 $end
$var wire 1 q a1_na2 $end
$var wire 1 o a4_a5 $end
$var wire 1 n a4_na5 $end
$var wire 6 2" address [0:5] $end
$var wire 1 m c_a0 $end
$var wire 1 l c_na0 $end
$var wire 1 3" clock_enable $end
$var wire 1 (" enable $end
$var wire 1 k na1_a2 $end
$var wire 1 j na1_na2 $end
$var wire 1 h na4_a5 $end
$var wire 1 g na4_na5 $end
$var wire 1 V strobe $end
$var wire 1 i na3 $end
$var wire 6 4" inv_address [0:5] $end
$var wire 1 p a3 $end
$upscope $end
$scope module predecode_w0 $end
$var wire 1 d a1_a2 $end
$var wire 1 c a1_na2 $end
$var wire 1 a a4_a5 $end
$var wire 1 ` a4_na5 $end
$var wire 6 5" address [0:5] $end
$var wire 1 _ c_a0 $end
$var wire 1 ^ c_na0 $end
$var wire 1 6" clock_enable $end
$var wire 1 +" enable $end
$var wire 1 ] na1_a2 $end
$var wire 1 \ na1_na2 $end
$var wire 1 Z na4_a5 $end
$var wire 1 Y na4_na5 $end
$var wire 1 V strobe $end
$var wire 1 [ na3 $end
$var wire 6 7" inv_address [0:5] $end
$var wire 1 b a3 $end
$upscope $end
$upscope $end
$scope module array0 $end
$var wire 1 8" rd0_a0 $end
$var wire 1 9" rd0_a1 $end
$var wire 1 ~ rd0_a1_a2 $end
$var wire 1 } rd0_a1_na2 $end
$var wire 1 :" rd0_a2 $end
$var wire 1 | rd0_a3 $end
$var wire 1 ;" rd0_a4 $end
$var wire 1 { rd0_a4_a5 $end
$var wire 1 z rd0_a4_na5 $end
$var wire 1 <" rd0_a5 $end
$var wire 1 y rd0_c_a0 $end
$var wire 1 x rd0_c_na0 $end
$var wire 1 =" rd0_enable $end
$var wire 1 w rd0_na1_a2 $end
$var wire 1 v rd0_na1_na2 $end
$var wire 1 u rd0_na3 $end
$var wire 1 t rd0_na4_a5 $end
$var wire 1 s rd0_na4_na5 $end
$var wire 1 >" rd1_a0 $end
$var wire 1 ?" rd1_a1 $end
$var wire 1 r rd1_a1_a2 $end
$var wire 1 q rd1_a1_na2 $end
$var wire 1 @" rd1_a2 $end
$var wire 1 p rd1_a3 $end
$var wire 1 A" rd1_a4 $end
$var wire 1 o rd1_a4_a5 $end
$var wire 1 n rd1_a4_na5 $end
$var wire 1 B" rd1_a5 $end
$var wire 1 m rd1_c_a0 $end
$var wire 1 l rd1_c_na0 $end
$var wire 1 C" rd1_enable $end
$var wire 1 k rd1_na1_a2 $end
$var wire 1 j rd1_na1_na2 $end
$var wire 1 i rd1_na3 $end
$var wire 1 h rd1_na4_a5 $end
$var wire 1 g rd1_na4_na5 $end
$var wire 1 D" wr0_a0 $end
$var wire 1 E" wr0_a1 $end
$var wire 1 d wr0_a1_a2 $end
$var wire 1 c wr0_a1_na2 $end
$var wire 1 F" wr0_a2 $end
$var wire 1 b wr0_a3 $end
$var wire 1 G" wr0_a4 $end
$var wire 1 a wr0_a4_a5 $end
$var wire 1 ` wr0_a4_na5 $end
$var wire 1 H" wr0_a5 $end
$var wire 1 _ wr0_c_a0 $end
$var wire 1 ^ wr0_c_na0 $end
$var wire 24 I" wr0_dat [0:23] $end
$var wire 1 J" wr0_enable $end
$var wire 1 ] wr0_na1_a2 $end
$var wire 1 \ wr0_na1_na2 $end
$var wire 1 [ wr0_na3 $end
$var wire 1 Z wr0_na4_a5 $end
$var wire 1 Y wr0_na4_na5 $end
$var wire 24 K" rd1_dat [0:23] $end
$var wire 24 L" rd0_dat [0:23] $end
$upscope $end
$scope module array1 $end
$var wire 1 M" rd0_a0 $end
$var wire 1 N" rd0_a1 $end
$var wire 1 ~ rd0_a1_a2 $end
$var wire 1 } rd0_a1_na2 $end
$var wire 1 O" rd0_a2 $end
$var wire 1 | rd0_a3 $end
$var wire 1 P" rd0_a4 $end
$var wire 1 { rd0_a4_a5 $end
$var wire 1 z rd0_a4_na5 $end
$var wire 1 Q" rd0_a5 $end
$var wire 1 y rd0_c_a0 $end
$var wire 1 x rd0_c_na0 $end
$var wire 1 R" rd0_enable $end
$var wire 1 w rd0_na1_a2 $end
$var wire 1 v rd0_na1_na2 $end
$var wire 1 u rd0_na3 $end
$var wire 1 t rd0_na4_a5 $end
$var wire 1 s rd0_na4_na5 $end
$var wire 1 S" rd1_a0 $end
$var wire 1 T" rd1_a1 $end
$var wire 1 r rd1_a1_a2 $end
$var wire 1 q rd1_a1_na2 $end
$var wire 1 U" rd1_a2 $end
$var wire 1 p rd1_a3 $end
$var wire 1 V" rd1_a4 $end
$var wire 1 o rd1_a4_a5 $end
$var wire 1 n rd1_a4_na5 $end
$var wire 1 W" rd1_a5 $end
$var wire 1 m rd1_c_a0 $end
$var wire 1 l rd1_c_na0 $end
$var wire 1 X" rd1_enable $end
$var wire 1 k rd1_na1_a2 $end
$var wire 1 j rd1_na1_na2 $end
$var wire 1 i rd1_na3 $end
$var wire 1 h rd1_na4_a5 $end
$var wire 1 g rd1_na4_na5 $end
$var wire 1 Y" wr0_a0 $end
$var wire 1 Z" wr0_a1 $end
$var wire 1 d wr0_a1_a2 $end
$var wire 1 c wr0_a1_na2 $end
$var wire 1 [" wr0_a2 $end
$var wire 1 b wr0_a3 $end
$var wire 1 \" wr0_a4 $end
$var wire 1 a wr0_a4_a5 $end
$var wire 1 ` wr0_a4_na5 $end
$var wire 1 ]" wr0_a5 $end
$var wire 1 _ wr0_c_a0 $end
$var wire 1 ^ wr0_c_na0 $end
$var wire 24 ^" wr0_dat [0:23] $end
$var wire 1 _" wr0_enable $end
$var wire 1 ] wr0_na1_a2 $end
$var wire 1 \ wr0_na1_na2 $end
$var wire 1 [ wr0_na3 $end
$var wire 1 Z wr0_na4_a5 $end
$var wire 1 Y wr0_na4_na5 $end
$var wire 24 `" rd1_dat [0:23] $end
$var wire 24 a" rd0_dat [0:23] $end
$upscope $end
$scope module array2 $end
$var wire 1 b" rd0_a0 $end
$var wire 1 c" rd0_a1 $end
$var wire 1 ~ rd0_a1_a2 $end
$var wire 1 } rd0_a1_na2 $end
$var wire 1 d" rd0_a2 $end
$var wire 1 | rd0_a3 $end
$var wire 1 e" rd0_a4 $end
$var wire 1 { rd0_a4_a5 $end
$var wire 1 z rd0_a4_na5 $end
$var wire 1 f" rd0_a5 $end
$var wire 1 y rd0_c_a0 $end
$var wire 1 x rd0_c_na0 $end
$var wire 1 g" rd0_enable $end
$var wire 1 w rd0_na1_a2 $end
$var wire 1 v rd0_na1_na2 $end
$var wire 1 u rd0_na3 $end
$var wire 1 t rd0_na4_a5 $end
$var wire 1 s rd0_na4_na5 $end
$var wire 1 h" rd1_a0 $end
$var wire 1 i" rd1_a1 $end
$var wire 1 r rd1_a1_a2 $end
$var wire 1 q rd1_a1_na2 $end
$var wire 1 j" rd1_a2 $end
$var wire 1 p rd1_a3 $end
$var wire 1 k" rd1_a4 $end
$var wire 1 o rd1_a4_a5 $end
$var wire 1 n rd1_a4_na5 $end
$var wire 1 l" rd1_a5 $end
$var wire 1 m rd1_c_a0 $end
$var wire 1 l rd1_c_na0 $end
$var wire 1 m" rd1_enable $end
$var wire 1 k rd1_na1_a2 $end
$var wire 1 j rd1_na1_na2 $end
$var wire 1 i rd1_na3 $end
$var wire 1 h rd1_na4_a5 $end
$var wire 1 g rd1_na4_na5 $end
$var wire 1 n" wr0_a0 $end
$var wire 1 o" wr0_a1 $end
$var wire 1 d wr0_a1_a2 $end
$var wire 1 c wr0_a1_na2 $end
$var wire 1 p" wr0_a2 $end
$var wire 1 b wr0_a3 $end
$var wire 1 q" wr0_a4 $end
$var wire 1 a wr0_a4_a5 $end
$var wire 1 ` wr0_a4_na5 $end
$var wire 1 r" wr0_a5 $end
$var wire 1 _ wr0_c_a0 $end
$var wire 1 ^ wr0_c_na0 $end
$var wire 24 s" wr0_dat [0:23] $end
$var wire 1 t" wr0_enable $end
$var wire 1 ] wr0_na1_a2 $end
$var wire 1 \ wr0_na1_na2 $end
$var wire 1 [ wr0_na3 $end
$var wire 1 Z wr0_na4_a5 $end
$var wire 1 Y wr0_na4_na5 $end
$var wire 24 u" rd1_dat [0:23] $end
$var wire 24 v" rd0_dat [0:23] $end
$upscope $end
$upscope $end
$upscope $end
$enddefinitions $end
#0
$dumpvars
bx v"
bx u"
xt"
bz s"
xr"
xq"
xp"
xo"
xn"
xm"
xl"
xk"
xj"
xi"
xh"
xg"
xf"
xe"
xd"
xc"
xb"
bx a"
bx `"
x_"
bz ^"
x]"
x\"
x["
xZ"
xY"
xX"
xW"
xV"
xU"
xT"
xS"
xR"
xQ"
xP"
xO"
xN"
xM"
bx L"
bx K"
xJ"
bz I"
xH"
xG"
xF"
xE"
xD"
xC"
xB"
xA"
x@"
x?"
x>"
x="
x<"
x;"
x:"
x9"
x8"
bx 7"
x6"
bz 5"
bx 4"
x3"
bz 2"
bx 1"
x0"
bz /"
bz ."
bz -"
bz ,"
z+"
bz *"
bz )"
z("
z'"
bx &"
bx %"
bz $"
bz #"
bx ""
bx !"
x~
x}
z|
x{
xz
xy
xx
xw
xv
xu
xt
xs
xr
xq
zp
xo
xn
xm
xl
xk
xj
xi
xh
xg
bx f
bx e
xd
xc
zb
xa
x`
x_
x^
x]
x\
x[
xZ
xY
bz X
bz W
1V
bz U
bz T
bx S
bx R
bx Q
bz P
bx O
bx N
xM
bz L
bx K
bz J
bx I
bz H
bz G
bz F
bz E
b0 D
bx C
bz B
bz A
bz @
z?
bz >
bz =
z<
bz ;
z:
bz 9
bx 8
bz 7
z6
bz 5
z4
bz 3
bz 2
z1
bx 0
bx /
0.
z-
bz ,
bz +
1*
z)
z(
bz '
bz &
1%
z$
bz #
b0 "
bz !
$end
#500
0%
#1000
1\
1Y
1j
1g
1v
1s
1[
0E"
0F"
0Z"
0["
0o"
0p"
0G"
0H"
0\"
0]"
0q"
0r"
0J"
0_"
0t"
1i
0?"
0@"
0T"
0U"
0i"
0j"
0A"
0B"
0V"
0W"
0k"
0l"
0C"
0X"
0m"
1u
09"
0:"
0N"
0O"
0c"
0d"
0;"
0<"
0P"
0Q"
0e"
0f"
0="
0R"
0g"
b111111 7"
0]
0c
0d
0Z
0`
0a
0^
0D"
0Y"
0n"
0_
b111111 4"
0k
0q
0r
0h
0n
0o
0l
0>"
0S"
0h"
0m
b111111 1"
0w
0}
0~
0t
0z
0{
0x
08"
0M"
0b"
0y
b0 I"
b0 ^"
b0 s"
0b
06"
0p
03"
0|
00"
b0 *"
b0 )"
b0 ."
b0 5"
0+"
b0 $"
b0 -"
b0 2"
0("
b0 #"
b0 ,"
b0 /"
0'"
0M
b111111 C
b111111 N
b1111111111111111 8
b1111111111111111 O
b1111111111111111 S
b1111111111111111 R
1%
#1500
0%
#2000
1%
#2500
0%
#3000
1%
#3500
0%
#4000
1%
#4500
0%
#5000
1%
#5500
0%
#6000
1%
#6500
0%
#7000
1%
#7500
0%
#8000
1%
#8500
0%
#9000
1%
#9500
0%
#10000
0*
1%
#10500
1.
0%
#11000
x\
xY
xj
xg
xv
xs
x[
xE"
xF"
xZ"
x["
xo"
xp"
xG"
xH"
x\"
x]"
xq"
xr"
xJ"
x_"
xt"
xi
x?"
x@"
xT"
xU"
xi"
xj"
xA"
xB"
xV"
xW"
xk"
xl"
xC"
xX"
xm"
xu
x9"
x:"
xN"
xO"
xc"
xd"
x;"
x<"
xP"
xQ"
xe"
xf"
x="
xR"
xg"
bx 7"
x]
xc
xd
xZ
x`
xa
x^
xD"
xY"
xn"
x_
bx 4"
xk
xq
xr
xh
xn
xo
xl
x>"
xS"
xh"
xm
bx 1"
xw
x}
x~
xt
xz
x{
xx
x8"
xM"
xb"
xy
bz I"
bz ^"
bz s"
zb
x6"
zp
x3"
z|
x0"
bz *"
bz )"
bz ."
bz 5"
z+"
bz $"
bz -"
bz 2"
z("
bz #"
bz ,"
bz /"
z'"
bx 8
bx O
bx S
bx R
0.
1%
#11500
1.
0%
#12000
0.
1%
#12500
1.
0%
#13000
0.
1%
#13500
1.
0%
#14000
0.
1%
#14500
1.
0%
#15000
0.
1%
#15500
1.
0%
#16000
0.
1%
#16500
1.
0%
#17000
0.
1%
#17500
1.
0%
#18000
0.
1%
#18500
1.
0%
#19000
0.
1%
#19500
1.
0%
#20000
0.
1%
#20500
1.
0%
#21000
0.
1%
#21500
1.
0%
#22000
0.
1%
#22500
1.
0%
#23000
0.
1%
#23500
1.
0%
#24000
0.
1%
#24500
1.
0%
#25000
0.
1%
#25500
1.
0%
#26000
0.
1%
#26500
1.
0%
#27000
0.
1%
#27500
1.
0%
#28000
0.
1%
#28500
1.
0%
#29000
0.
1%
#29500
1.
0%
#30000
0.
1%
#30500
1.
0%
#31000
0.
1%
#31500
1.
0%
#32000
0.
1%
#32500
1.
0%
#33000
0.
1%
#33500
1.
0%
#34000
0.
1%
#34500
1.
0%
#35000
0.
1%
#35500
1.
0%
#36000
0.
1%
#36500
1.
0%
#37000
0.
1%
#37500
1.
0%
#38000
0.
1%
#38500
1.
0%
#39000
0.
1%
#39500
1.
0%
#40000
0.
1%
#40500
1.
0%
#41000
0.
1%
#41500
1.
0%
#42000
0.
1%
#42500
1.
0%
#43000
0.
1%
#43500
1.
0%
#44000
0.
1%
#44500
1.
0%
#45000
0.
1%
#45500
1.
0%
#46000
0.
1%
#46500
1.
0%
#47000
0.
1%
#47500
1.
0%
#48000
0.
1%
#48500
1.
0%
#49000
0.
1%
#49500
1.
0%
#50000
0.
1%
#50500
1.
0%
#51000
0.
1%
#51500
1.
0%
#52000
0.
1%
#52500
1.
0%
#53000
0.
1%
#53500
1.
0%
#54000
0.
1%
#54500
1.
0%
#55000
0.
1%
#55500
1.
0%
#56000
0.
1%
#56500
1.
0%
#57000
0.
1%
#57500
1.
0%
#58000
0.
1%
#58500
1.
0%
#59000
0.
1%
#59500
1.
0%
#60000
0.
1%
#60500
1.
0%
#61000
0.
1%
#61500
1.
0%
#62000
0.
1%
#62500
1.
0%
#63000
0.
1%
#63500
1.
0%
#64000
0.
1%
#64500
1.
0%
#65000
0.
1%
#65500
1.
0%
#66000
0.
1%
#66500
1.
0%
#67000
0.
1%
#67500
1.
0%
#68000
0.
1%
#68500
1.
0%
#69000
0.
1%
#69500
1.
0%
#70000
0.
1%
#70500
1.
0%
#71000
0.
1%
#71500
1.
0%
#72000
0.
1%
#72500
1.
0%
#73000
0.
1%
#73500
1.
0%
#74000
0.
1%
#74500
1.
0%
#75000
0.
1%
#75500
1.
0%
#76000
0.
1%
#76500
1.
0%
#77000
0.
1%
#77500
1.
0%
#78000
0.
1%
#78500
1.
0%
#79000
0.
1%
#79500
1.
0%
#80000
0.
1%
#80500
1.
0%
#81000
0.
1%
#81500
1.
0%
#82000
0.
1%
#82500
1.
0%
#83000
0.
1%
#83500
1.
0%
#84000
0.
1%
#84500
1.
0%
#85000
0.
1%
#85500
1.
0%
#86000
0.
1%
#86500
1.
0%
#87000
0.
1%
#87500
1.
0%
#88000
0.
1%
#88500
1.
0%
#89000
0.
1%
#89500
1.
0%
#90000
0.
1%
#90500
1.
0%
#91000
0.
1%
#91500
1.
0%
#92000
0.
1%
#92500
1.
0%
#93000
0.
1%
#93500
1.
0%
#94000
0.
1%
#94500
1.
0%
#95000
0.
1%
#95500
1.
0%
#96000
0.
1%
#96500
1.
0%
#97000
0.
1%
#97500
1.
0%
#98000
0.
1%
#98500
1.
0%
#99000
0.
1%
#99500
1.
0%
#100000
0.
1%
#100500
1.
0%
#101000
0.
1%
#101500
1.
0%
#102000
0.
1%
#102500
1.
0%
#103000
0.
1%
#103500
1.
0%
#104000
0.
1%
#104500
1.
0%
#105000
0.
1%
#105500
1.
0%
#106000
0.
1%
#106500
1.
0%
#107000
0.
1%
#107500
1.
0%
#108000
0.
1%
#108500
1.
0%
#109000
0.
1%
#109500
1.
0%
#110000
0.
1%
#110500
1.
0%
#111000
0.
1%
#111500
1.
0%
#112000
0.
1%
#112500
1.
0%
#113000
0.
1%
#113500
1.
0%
#114000
0.
1%
#114500
1.
0%
#115000
0.
1%
#115500
1.
0%
#116000
0.
1%
#116500
1.
0%
#117000
0.
1%
#117500
1.
0%
#118000
0.
1%
#118500
1.
0%
#119000
0.
1%
#119500
1.
0%
#120000
0.
1%
#120500
1.
0%
#121000
0.
1%
#121500
1.
0%
#122000
0.
1%
#122500
1.
0%
#123000
0.
1%
#123500
1.
0%
#124000
0.
1%
#124500
1.
0%
#125000
0.
1%
#125500
1.
0%
#126000
0.
1%
#126500
1.
0%
#127000
0.
1%
#127500
1.
0%
#128000
0.
1%
#128500
1.
0%
#129000
0.
1%
#129500
1.
0%
#130000
b101010101010101010101010101010101010101010101010101010100000000 2
b101010101010101010101010101010101010101010101010101010100000000 G
b101010101010101010101010101010101010101010101010101010100000000 X
b0 3
b0 H
b0 W
11
b101010101010101010101010101010101010101010101010101010100000000 ,
b101010101010101010101010101010101010101010101010101010100000000 F
b0 +
b0 E
1-
0.
1%
#130500
1.
0%
#131000
b10101010101010101010101010101010101010101010101010101010100000001 2
b10101010101010101010101010101010101010101010101010101010100000001 G
b10101010101010101010101010101010101010101010101010101010100000001 X
b1 3
b1 H
b1 W
b10101010101010101010101010101010101010101010101010101010100000001 ,
b10101010101010101010101010101010101010101010101010101010100000001 F
b1 +
b1 E
1J"
1_"
1t"
1^
1\
1Y
1[
0E"
0F"
0Z"
0["
0o"
0p"
0G"
0H"
0\"
0]"
0q"
0r"
b111111 7"
0]
0c
0d
0Z
0`
0a
0D"
0Y"
0n"
0_
b101010101010101 I"
b10101010101010101010101 ^"
b10101010101010100000000 s"
0b
16"
b101010101010101010101010101010101010101010101010101010100000000 *"
b0 )"
b0 ."
b0 5"
1+"
0.
1%
#131500
1.
0%
#132000
b100101010101010101010101010101010101010101010101010101010100000010 2
b100101010101010101010101010101010101010101010101010101010100000010 G
b100101010101010101010101010101010101010101010101010101010100000010 X
b10 3
b10 H
b10 W
b100101010101010101010101010101010101010101010101010101010100000010 ,
b100101010101010101010101010101010101010101010101010101010100000010 F
b10 +
b10 E
0Y
1H"
1]"
1r"
b111110 7"
1Z
b10101010101010101 I"
b10101010101010100000001 s"
b10101010101010101010101010101010101010101010101010101010100000001 *"
b1 )"
b1 ."
b1 5"
0.
1%
#132500
1.
0%
#133000
b110101010101010101010101010101010101010101010101010101010100000011 2
b110101010101010101010101010101010101010101010101010101010100000011 G
b110101010101010101010101010101010101010101010101010101010100000011 X
b11 3
b11 H
b11 W
b110101010101010101010101010101010101010101010101010101010100000011 ,
b110101010101010101010101010101010101010101010101010101010100000011 F
b11 +
b11 E
1G"
1\"
1q"
1`
0H"
0]"
0r"
b111101 7"
0Z
b100101010101010101 I"
b10101010101010100000010 s"
b100101010101010101010101010101010101010101010101010101010100000010 *"
b10 )"
b10 ."
b10 5"
0.
1%
#133500
1.
0%
#134000
b1000101010101010101010101010101010101010101010101010101010100000100 2
b1000101010101010101010101010101010101010101010101010101010100000100 G
b1000101010101010101010101010101010101010101010101010101010100000100 X
b100 3
b100 H
b100 W
b1000101010101010101010101010101010101010101010101010101010100000100 ,
b1000101010101010101010101010101010101010101010101010101010100000100 F
b100 +
b100 E
0`
1H"
1]"
1r"
b111100 7"
1a
b110101010101010101 I"
b10101010101010100000011 s"
b110101010101010101010101010101010101010101010101010101010100000011 *"
b11 )"
b11 ."
b11 5"
0.
1%
#134500
1.
0%
#135000
b1010101010101010101010101010101010101010101010101010101010100000101 2
b1010101010101010101010101010101010101010101010101010101010100000101 G
b1010101010101010101010101010101010101010101010101010101010100000101 X
b101 3
b101 H
b101 W
b1010101010101010101010101010101010101010101010101010101010100000101 ,
b1010101010101010101010101010101010101010101010101010101010100000101 F
b101 +
b101 E
1Y
0[
0G"
0H"
0\"
0]"
0q"
0r"
b111011 7"
0a
b1000101010101010101 I"
b10101010101010100000100 s"
1b
b1000101010101010101010101010101010101010101010101010101010100000100 *"
b100 )"
b100 ."
b100 5"
0.
1%
#135500
1.
0%
#136000
b1100101010101010101010101010101010101010101010101010101010100000110 2
b1100101010101010101010101010101010101010101010101010101010100000110 G
b1100101010101010101010101010101010101010101010101010101010100000110 X
b110 3
b110 H
b110 W
b1100101010101010101010101010101010101010101010101010101010100000110 ,
b1100101010101010101010101010101010101010101010101010101010100000110 F
b110 +
b110 E
0Y
1H"
1]"
1r"
b111010 7"
1Z
b1010101010101010101 I"
b10101010101010100000101 s"
b1010101010101010101010101010101010101010101010101010101010100000101 *"
b101 )"
b101 ."
b101 5"
0.
1%
#136500
1.
0%
#137000
b1110101010101010101010101010101010101010101010101010101010100000111 2
b1110101010101010101010101010101010101010101010101010101010100000111 G
b1110101010101010101010101010101010101010101010101010101010100000111 X
b111 3
b111 H
b111 W
b1110101010101010101010101010101010101010101010101010101010100000111 ,
b1110101010101010101010101010101010101010101010101010101010100000111 F
b111 +
b111 E
1G"
1\"
1q"
1`
0H"
0]"
0r"
b111001 7"
0Z
b1100101010101010101 I"
b10101010101010100000110 s"
b1100101010101010101010101010101010101010101010101010101010100000110 *"
b110 )"
b110 ."
b110 5"
0.
1%
#137500
1.
0%
#138000
b10000101010101010101010101010101010101010101010101010101010100001000 2
b10000101010101010101010101010101010101010101010101010101010100001000 G
b10000101010101010101010101010101010101010101010101010101010100001000 X
b1000 3
b1000 H
b1000 W
b10000101010101010101010101010101010101010101010101010101010100001000 ,
b10000101010101010101010101010101010101010101010101010101010100001000 F
b1000 +
b1000 E
0`
1H"
1]"
1r"
b111000 7"
1a
b1110101010101010101 I"
b10101010101010100000111 s"
b1110101010101010101010101010101010101010101010101010101010100000111 *"
b111 )"
b111 ."
b111 5"
0.
1%
#138500
1.
0%
